^C:\04-630\ASSIGNMENTS\ASSIGNMENT2\BUILD\CMAKEFILES\4F68D3EFF037A056028B5749293861C4\INSTALL_FORCE.RULE
setlocal
cd .
if %errorlevel% neq 0 goto :cmEnd
:cmEnd
endlocal & call :cmErrorLevel %errorlevel% & goto :cmDone
:cmErrorLevel
exit /b %1
:cmDone
if %errorlevel% neq 0 goto :VCEnd
