^C:\04-630\PROJECT\BUILD\SRC\ARRAYLIST\ARRAYLIST.DIR\RELEASE\ARRAYLISTAPPLICATION.OBJ|C:\04-630\PROJECT\BUILD\SRC\ARRAYLIST\ARRAYLIST.DIR\RELEASE\ARRAYLISTIMPLEMENTATION.OBJ
C:\04-630\PROJECT\BUILD\RELEASE\ARRAYLIST.EXE
C:\04-630\PROJECT\BUILD\SRC\ARRAYLIST\ARRAYLIST.DIR\RELEASE\ARRAYLIST.EXE.INTERMEDIATE.MANIFEST
