^C:\04-630\ASSIGNMENTS\ASSIGNMENT0\BUILD\SRC\LCHACHA\LCHACHA.DIR\RELEASE\LCHACHA.EXE.INTERMEDIATE.MANIFEST
C:\WINDOWS\MICROSOFT.NET\FRAMEWORK\V2.0.50727\MSCORWKS.DLL
C:\WINDOWS\MICROSOFT.NET\FRAMEWORK\V4.0.30319\CLR.DLL
C:\PROGRAM FILES\MICROSOFT SDKS\WINDOWS\V7.0A\BIN\MT.EXE.CONFIG
C:\04-630\ASSIGNMENTS\ASSIGNMENT0\BUILD\RELEASE\LCHACHA.EXE
