^C:\04-630\PROJECT\SRC\GRAPH\GRAPHAPPLICATION.CPP|C:\04-630\PROJECT\SRC\GRAPH\GRAPHIMPLEMENTATION.CPP
C:\04-630\PROJECT\BUILD\SRC\GRAPH\GRAPH.DIR\DEBUG\GRAPHIMPLEMENTATION.OBJ
C:\04-630\PROJECT\BUILD\SRC\GRAPH\GRAPH.DIR\DEBUG\GRAPHAPPLICATION.OBJ
