^C:\04-630\PROJECT\SRC\BINARYTREE\BINARYTREEAPPLICATION.C
/c /Zi /nologo /W3 /WX- /Od /Ob0 /Oy- /D WIN32 /D _WINDOWS /D _CRT_SECURE_NO_DEPRECATE /D "CMAKE_INTDIR=\"Debug\"" /D _MBCS /Gm- /RTC1 /MDd /GS /fp:precise /Zc:wchar_t /Zc:forScope /Fo"binaryTree.dir\Debug\\" /Fd"binaryTree.dir\Debug\vc100.pdb" /Gd /TC /analyze- /errorReport:prompt C:\04-630\PROJECT\SRC\BINARYTREE\BINARYTREEAPPLICATION.C
^C:\04-630\PROJECT\SRC\BINARYTREE\BINARYTREEIMPLEMENTATION.C
/c /Zi /nologo /W3 /WX- /Od /Ob0 /Oy- /D WIN32 /D _WINDOWS /D _CRT_SECURE_NO_DEPRECATE /D "CMAKE_INTDIR=\"Debug\"" /D _MBCS /Gm- /RTC1 /MDd /GS /fp:precise /Zc:wchar_t /Zc:forScope /Fo"binaryTree.dir\Debug\\" /Fd"binaryTree.dir\Debug\vc100.pdb" /Gd /TC /analyze- /errorReport:prompt C:\04-630\PROJECT\SRC\BINARYTREE\BINARYTREEIMPLEMENTATION.C
