^C:\04-630\PROJECT\SRC\BINARYTREE\CMAKELISTS.TXT
setlocal
"C:\Program Files\CMake\bin\cmake.exe" -HC:/04-630/project -BC:/04-630/project/build --check-stamp-file C:/04-630/project/build/src/binaryTree/CMakeFiles/generate.stamp
if %errorlevel% neq 0 goto :cmEnd
:cmEnd
endlocal & call :cmErrorLevel %errorlevel% & goto :cmDone
:cmErrorLevel
exit /b %1
:cmDone
if %errorlevel% neq 0 goto :VCEnd
