^C:\04-630\ASSIGNMENTS\ASSIGNMENT0\SRC\DVERNON\EXAMPLEAPPLICATION.CPP|C:\04-630\ASSIGNMENTS\ASSIGNMENT0\SRC\DVERNON\EXAMPLEIMPLEMENTATION.CPP
C:\04-630\ASSIGNMENTS\ASSIGNMENT0\BUILD\SRC\DVERNON\DVERNON.DIR\DEBUG\EXAMPLEIMPLEMENTATION.OBJ
C:\04-630\ASSIGNMENTS\ASSIGNMENT0\BUILD\SRC\DVERNON\DVERNON.DIR\DEBUG\EXAMPLEAPPLICATION.OBJ
^C:\04-630\ASSIGNMENTS\ASSIGNMENT0\SRC\DVERNON\EXAMPLEAPPLICATION.CPP
C:\04-630\ASSIGNMENTS\ASSIGNMENT0\BUILD\SRC\DVERNON\DVERNON.DIR\DEBUG\VC100.PDB
^C:\04-630\ASSIGNMENTS\ASSIGNMENT0\SRC\DVERNON\EXAMPLEIMPLEMENTATION.CPP
C:\04-630\ASSIGNMENTS\ASSIGNMENT0\BUILD\SRC\DVERNON\DVERNON.DIR\DEBUG\VC100.PDB
