^C:\04-630\ASSIGNMENTS\ASSIGNMENT0\BUILD\SRC\DVERNON\DVERNON.DIR\DEBUG\DVERNON.EXE.EMBED.MANIFEST.RES|C:\04-630\ASSIGNMENTS\ASSIGNMENT0\BUILD\SRC\DVERNON\DVERNON.DIR\DEBUG\EXAMPLEAPPLICATION.OBJ|C:\04-630\ASSIGNMENTS\ASSIGNMENT0\BUILD\SRC\DVERNON\DVERNON.DIR\DEBUG\EXAMPLEIMPLEMENTATION.OBJ
C:\04-630\ASSIGNMENTS\ASSIGNMENT0\BUILD\DEBUG\DVERNON.ILK
C:\04-630\ASSIGNMENTS\ASSIGNMENT0\BUILD\DEBUG\DVERNON.EXE
C:\04-630\ASSIGNMENTS\ASSIGNMENT0\BUILD\SRC\DVERNON\DVERNON.DIR\DEBUG\DVERNON.EXE.INTERMEDIATE.MANIFEST
C:\04-630\ASSIGNMENTS\ASSIGNMENT0\BUILD\DEBUG\DVERNON.PDB
