^C:\04-630\PROJECT\BUILD\CMAKEFILES\C484F7E0148C4EAF6A196FB48425CBDC\GENERATE.STAMP.RULE
setlocal
"C:\Program Files\CMake\bin\cmake.exe" -HC:/04-630/project -BC:/04-630/project/build --check-stamp-list CMakeFiles/generate.stamp.list --vs-solution-file C:/04-630/project/build/project.sln
if %errorlevel% neq 0 goto :cmEnd
:cmEnd
endlocal & call :cmErrorLevel %errorlevel% & goto :cmDone
:cmErrorLevel
exit /b %1
:cmDone
if %errorlevel% neq 0 goto :VCEnd
