^C:\04-630\PROJECT\CMAKELISTS.TXT
C:\04-630\PROJECT\BUILD\CMAKEFILES\3.8.2\CMAKESYSTEM.CMAKE
C:\PROGRAM FILES\CMAKE\SHARE\CMAKE-3.8\MODULES\CMAKESYSTEMSPECIFICINITIALIZE.CMAKE
C:\04-630\PROJECT\BUILD\CMAKEFILES\3.8.2\CMAKECCOMPILER.CMAKE
C:\04-630\PROJECT\BUILD\CMAKEFILES\3.8.2\CMAKECXXCOMPILER.CMAKE
C:\PROGRAM FILES\CMAKE\SHARE\CMAKE-3.8\MODULES\CMAKESYSTEMSPECIFICINFORMATION.CMAKE
C:\PROGRAM FILES\CMAKE\SHARE\CMAKE-3.8\MODULES\CMAKEGENERICSYSTEM.CMAKE
C:\PROGRAM FILES\CMAKE\SHARE\CMAKE-3.8\MODULES\PLATFORM\WINDOWS.CMAKE
C:\PROGRAM FILES\CMAKE\SHARE\CMAKE-3.8\MODULES\PLATFORM\WINDOWSPATHS.CMAKE
C:\PROGRAM FILES\CMAKE\SHARE\CMAKE-3.8\MODULES\CMAKECINFORMATION.CMAKE
C:\PROGRAM FILES\CMAKE\SHARE\CMAKE-3.8\MODULES\CMAKELANGUAGEINFORMATION.CMAKE
C:\PROGRAM FILES\CMAKE\SHARE\CMAKE-3.8\MODULES\PLATFORM\WINDOWS-MSVC-C.CMAKE
C:\PROGRAM FILES\CMAKE\SHARE\CMAKE-3.8\MODULES\PLATFORM\WINDOWS-MSVC.CMAKE
C:\04-630\PROJECT\BUILD\CMAKEFILES\3.8.2\CMAKERCCOMPILER.CMAKE
C:\PROGRAM FILES\CMAKE\SHARE\CMAKE-3.8\MODULES\CMAKERCINFORMATION.CMAKE
C:\PROGRAM FILES\CMAKE\SHARE\CMAKE-3.8\MODULES\CMAKECOMMONLANGUAGEINCLUDE.CMAKE
C:\PROGRAM FILES\CMAKE\SHARE\CMAKE-3.8\MODULES\CMAKECXXINFORMATION.CMAKE
C:\PROGRAM FILES\CMAKE\SHARE\CMAKE-3.8\MODULES\COMPILER\MSVC-CXX.CMAKE
C:\PROGRAM FILES\CMAKE\SHARE\CMAKE-3.8\MODULES\PLATFORM\WINDOWS-MSVC-CXX.CMAKE
