^C:\04-630\ASSIGNMENTS\ASSIGNMENT0\BUILD\CMAKEFILES\3.8.2\COMPILERIDC\DEBUG\CMAKECCOMPILERID.OBJ
C:\04-630\ASSIGNMENTS\ASSIGNMENT0\BUILD\CMAKEFILES\3.8.2\COMPILERIDC\COMPILERIDC.EXE
C:\04-630\ASSIGNMENTS\ASSIGNMENT0\BUILD\CMAKEFILES\3.8.2\COMPILERIDC\DEBUG\COMPILERIDC.EXE.INTERMEDIATE.MANIFEST
