^C:\04-630\PROJECT\BUILD\SRC\LINKEDLIST\LINKEDLIST.DIR\DEBUG\LINKEDLIST.EXE.EMBED.MANIFEST.RES|C:\04-630\PROJECT\BUILD\SRC\LINKEDLIST\LINKEDLIST.DIR\DEBUG\LINKEDLISTAPPLICATION.OBJ|C:\04-630\PROJECT\BUILD\SRC\LINKEDLIST\LINKEDLIST.DIR\DEBUG\LINKEDLISTIMPLEMENTATION.OBJ
C:\PROGRAM FILES\MICROSOFT SDKS\WINDOWS\V7.0A\LIB\KERNEL32.LIB
C:\PROGRAM FILES\MICROSOFT SDKS\WINDOWS\V7.0A\LIB\USER32.LIB
C:\PROGRAM FILES\MICROSOFT SDKS\WINDOWS\V7.0A\LIB\GDI32.LIB
C:\PROGRAM FILES\MICROSOFT SDKS\WINDOWS\V7.0A\LIB\WINSPOOL.LIB
C:\PROGRAM FILES\MICROSOFT SDKS\WINDOWS\V7.0A\LIB\SHELL32.LIB
C:\PROGRAM FILES\MICROSOFT SDKS\WINDOWS\V7.0A\LIB\OLE32.LIB
C:\PROGRAM FILES\MICROSOFT SDKS\WINDOWS\V7.0A\LIB\OLEAUT32.LIB
C:\PROGRAM FILES\MICROSOFT SDKS\WINDOWS\V7.0A\LIB\UUID.LIB
C:\PROGRAM FILES\MICROSOFT SDKS\WINDOWS\V7.0A\LIB\COMDLG32.LIB
C:\PROGRAM FILES\MICROSOFT SDKS\WINDOWS\V7.0A\LIB\ADVAPI32.LIB
C:\04-630\PROJECT\BUILD\SRC\LINKEDLIST\LINKEDLIST.DIR\DEBUG\LINKEDLIST.EXE.EMBED.MANIFEST.RES
C:\04-630\PROJECT\BUILD\SRC\LINKEDLIST\LINKEDLIST.DIR\DEBUG\LINKEDLISTAPPLICATION.OBJ
C:\04-630\PROJECT\BUILD\SRC\LINKEDLIST\LINKEDLIST.DIR\DEBUG\LINKEDLISTIMPLEMENTATION.OBJ
C:\WINDOWS\SYSTEM32\TZRES.DLL
C:\04-630\PROJECT\BUILD\DEBUG\LINKEDLIST.EXE
C:\WINDOWS\GLOBALIZATION\SORTING\SORTDEFAULT.NLS
C:\04-630\PROJECT\BUILD\DEBUG\LINKEDLIST.PDB
C:\PROGRAM FILES\MICROSOFT VISUAL STUDIO 10.0\VC\LIB\MSVCRTD.LIB
C:\PROGRAM FILES\MICROSOFT VISUAL STUDIO 10.0\VC\LIB\OLDNAMES.LIB
C:\PROGRAM FILES\MICROSOFT VISUAL STUDIO 10.0\VC\BIN\CVTRES.EXE
C:\PROGRAM FILES\MICROSOFT VISUAL STUDIO 10.0\VC\BIN\LINK.EXE
C:\WINDOWS\SYSTEM32\RSAENH.DLL
