^C:\04-630\PROJECT\SRC\BINARYTREE\BINARYTREEAPPLICATION.C
/c /nologo /W3 /WX- /O2 /Ob2 /Oy- /D WIN32 /D _WINDOWS /D NDEBUG /D _CRT_SECURE_NO_DEPRECATE /D "CMAKE_INTDIR=\"Release\"" /D _MBCS /Gm- /MD /GS /fp:precise /Zc:wchar_t /Zc:forScope /Fo"binaryTree.dir\Release\\" /Fd"binaryTree.dir\Release\vc100.pdb" /Gd /TC /analyze- /errorReport:prompt C:\04-630\PROJECT\SRC\BINARYTREE\BINARYTREEAPPLICATION.C
^C:\04-630\PROJECT\SRC\BINARYTREE\BINARYTREEIMPLEMENTATION.C
/c /nologo /W3 /WX- /O2 /Ob2 /Oy- /D WIN32 /D _WINDOWS /D NDEBUG /D _CRT_SECURE_NO_DEPRECATE /D "CMAKE_INTDIR=\"Release\"" /D _MBCS /Gm- /MD /GS /fp:precise /Zc:wchar_t /Zc:forScope /Fo"binaryTree.dir\Release\\" /Fd"binaryTree.dir\Release\vc100.pdb" /Gd /TC /analyze- /errorReport:prompt C:\04-630\PROJECT\SRC\BINARYTREE\BINARYTREEIMPLEMENTATION.C
