^C:\04-630\PROJECT\SRC\BINARYTREE\BINARYTREEAPPLICATION.C|C:\04-630\PROJECT\SRC\BINARYTREE\BINARYTREEIMPLEMENTATION.C
C:\04-630\PROJECT\BUILD\SRC\BINARYTREE\BINARYTREE.DIR\RELEASE\BINARYTREEIMPLEMENTATION.OBJ
C:\04-630\PROJECT\BUILD\SRC\BINARYTREE\BINARYTREE.DIR\RELEASE\BINARYTREEAPPLICATION.OBJ
