^C:\04-630\ASSIGNMENTS\ASSIGNMENT0\BUILD\SRC\LCHACHA\DVERNON.DIR\RELEASE\EXAMPLEAPPLICATION.OBJ|C:\04-630\ASSIGNMENTS\ASSIGNMENT0\BUILD\SRC\LCHACHA\DVERNON.DIR\RELEASE\EXAMPLEIMPLEMENTATION.OBJ
C:\04-630\ASSIGNMENTS\ASSIGNMENT0\BUILD\RELEASE\DVERNON.EXE
C:\04-630\ASSIGNMENTS\ASSIGNMENT0\BUILD\SRC\LCHACHA\DVERNON.DIR\RELEASE\DVERNON.EXE.INTERMEDIATE.MANIFEST
