^C:\04-630\ASSIGNMENTS\ASSIGNMENT0\BUILD\SRC\LCHACHA\DVERNON.DIR\RELEASE\EXAMPLEAPPLICATION.OBJ|C:\04-630\ASSIGNMENTS\ASSIGNMENT0\BUILD\SRC\LCHACHA\DVERNON.DIR\RELEASE\EXAMPLEIMPLEMENTATION.OBJ
/ERRORREPORT:PROMPT /OUT:"C:\04-630\assignments\assignment0\build\Release\dvernon.exe" /INCREMENTAL:NO /NOLOGO kernel32.lib user32.lib gdi32.lib winspool.lib shell32.lib ole32.lib oleaut32.lib uuid.lib comdlg32.lib advapi32.lib /NODEFAULTLIB:"libc;libcmt.lib;libcmtd.lib" /MANIFEST /ManifestFile:"dvernon.dir\Release\dvernon.exe.intermediate.manifest" /MANIFESTUAC:"level='asInvoker' uiAccess='false'" /PDB:"C:/04-630/assignments/assignment0/build/Release/dvernon.pdb" /SUBSYSTEM:CONSOLE /TLBID:1 /DYNAMICBASE /NXCOMPAT /IMPLIB:"C:/04-630/assignments/assignment0/build/Release/dvernon.lib" /MACHINE:X86 dvernon.dir\Release\exampleApplication.obj
dvernon.dir\Release\exampleImplementation.obj   /machine:X86
