^C:\04-630\ASSIGNMENTS\ASSIGNMENT0\BUILD\CMAKEFILES\3.8.2\COMPILERIDCXX\CMAKECXXCOMPILERID.CPP
C:\PROGRAM FILES\MICROSOFT VISUAL STUDIO 10.0\VC\BIN\1033\CLUI.DLL
C:\WINDOWS\GLOBALIZATION\SORTING\SORTDEFAULT.NLS
C:\WINDOWS\SYSTEM32\RSAENH.DLL
C:\WINDOWS\SYSTEM32\TZRES.DLL
