^C:\04-630\ASSIGNMENTS\ASSIGNMENT0\BUILD\CMAKEFILES\C38BDF87FD06A50145FA1E40B11171D5\GENERATE.STAMP.RULE
C:\04-630\ASSIGNMENTS\ASSIGNMENT0\BUILD\CMAKEFILES\GENERATE.STAMP
C:\04-630\ASSIGNMENTS\ASSIGNMENT0\BUILD\SRC\CMAKEFILES\GENERATE.STAMP
C:\04-630\ASSIGNMENTS\ASSIGNMENT0\BUILD\SRC\DVERNON\CMAKEFILES\GENERATE.STAMP
