^C:\04-630\ASSIGNMENTS\ASSIGNMENT0\BUILD\SRC\DVERNON\DVERNON.DIR\RELEASE\EXAMPLEAPPLICATION.OBJ|C:\04-630\ASSIGNMENTS\ASSIGNMENT0\BUILD\SRC\DVERNON\DVERNON.DIR\RELEASE\EXAMPLEIMPLEMENTATION.OBJ
C:\PROGRAM FILES\MICROSOFT SDKS\WINDOWS\V7.0A\LIB\KERNEL32.LIB
C:\PROGRAM FILES\MICROSOFT SDKS\WINDOWS\V7.0A\LIB\USER32.LIB
C:\PROGRAM FILES\MICROSOFT SDKS\WINDOWS\V7.0A\LIB\GDI32.LIB
C:\PROGRAM FILES\MICROSOFT SDKS\WINDOWS\V7.0A\LIB\WINSPOOL.LIB
C:\PROGRAM FILES\MICROSOFT SDKS\WINDOWS\V7.0A\LIB\SHELL32.LIB
C:\PROGRAM FILES\MICROSOFT SDKS\WINDOWS\V7.0A\LIB\OLE32.LIB
C:\PROGRAM FILES\MICROSOFT SDKS\WINDOWS\V7.0A\LIB\OLEAUT32.LIB
C:\PROGRAM FILES\MICROSOFT SDKS\WINDOWS\V7.0A\LIB\UUID.LIB
C:\PROGRAM FILES\MICROSOFT SDKS\WINDOWS\V7.0A\LIB\COMDLG32.LIB
C:\PROGRAM FILES\MICROSOFT SDKS\WINDOWS\V7.0A\LIB\ADVAPI32.LIB
C:\04-630\ASSIGNMENTS\ASSIGNMENT0\BUILD\SRC\DVERNON\DVERNON.DIR\RELEASE\EXAMPLEAPPLICATION.OBJ
C:\04-630\ASSIGNMENTS\ASSIGNMENT0\BUILD\SRC\DVERNON\DVERNON.DIR\RELEASE\EXAMPLEIMPLEMENTATION.OBJ
C:\WINDOWS\GLOBALIZATION\SORTING\SORTDEFAULT.NLS
C:\PROGRAM FILES\MICROSOFT VISUAL STUDIO 10.0\VC\LIB\MSVCRT.LIB
C:\PROGRAM FILES\MICROSOFT VISUAL STUDIO 10.0\VC\LIB\OLDNAMES.LIB
C:\WINDOWS\SYSTEM32\TZRES.DLL
