^C:\04-630\ASSIGNMENTS\ASSIGNMENT0\CMAKELISTS.TXT
setlocal
"C:\Program Files\CMake\bin\cmake.exe" -HC:/04-630/assignments/assignment0 -BC:/04-630/assignments/assignment0/build --check-stamp-file C:/04-630/assignments/assignment0/build/CMakeFiles/generate.stamp
if %errorlevel% neq 0 goto :cmEnd
:cmEnd
endlocal & call :cmErrorLevel %errorlevel% & goto :cmDone
:cmErrorLevel
exit /b %1
:cmDone
if %errorlevel% neq 0 goto :VCEnd
