^C:\04-630\PROJECT\BUILD\SRC\ARRAYLIST\ARRAYLIST.DIR\DEBUG\ARRAYLIST.EXE.EMBED.MANIFEST.RES|C:\04-630\PROJECT\BUILD\SRC\ARRAYLIST\ARRAYLIST.DIR\DEBUG\ARRAYLISTAPPLICATION.OBJ|C:\04-630\PROJECT\BUILD\SRC\ARRAYLIST\ARRAYLIST.DIR\DEBUG\ARRAYLISTIMPLEMENTATION.OBJ
/ERRORREPORT:PROMPT /OUT:"C:\04-630\project\build\Debug\arrayList.exe" /INCREMENTAL /NOLOGO kernel32.lib user32.lib gdi32.lib winspool.lib shell32.lib ole32.lib oleaut32.lib uuid.lib comdlg32.lib advapi32.lib /NODEFAULTLIB:"libc;libcmt.lib;libcmtd.lib" /MANIFEST /ManifestFile:"arrayList.dir\Debug\arrayList.exe.intermediate.manifest" /MANIFESTUAC:"level='asInvoker' uiAccess='false'" /DEBUG /PDB:"C:/04-630/project/build/Debug/arrayList.pdb" /SUBSYSTEM:CONSOLE /TLBID:1 /DYNAMICBASE /NXCOMPAT /IMPLIB:"C:/04-630/project/build/Debug/arrayList.lib" /MACHINE:X86 arrayList.dir\Debug\arrayList.exe.embed.manifest.res
arrayList.dir\Debug\arrayListApplication.obj
arrayList.dir\Debug\arrayListImplementation.obj   /machine:X86
