^C:\04-630\ASSIGNMENTS\ASSIGNMENT0\BUILD\CMAKEFILES\C38BDF87FD06A50145FA1E40B11171D5\GENERATE.STAMP.RULE
setlocal
"C:\Program Files\CMake\bin\cmake.exe" -HC:/04-630/assignments/assignment0 -BC:/04-630/assignments/assignment0/build --check-stamp-list CMakeFiles/generate.stamp.list --vs-solution-file C:/04-630/assignments/assignment0/build/assignment0.sln
if %errorlevel% neq 0 goto :cmEnd
:cmEnd
endlocal & call :cmErrorLevel %errorlevel% & goto :cmDone
:cmErrorLevel
exit /b %1
:cmDone
if %errorlevel% neq 0 goto :VCEnd
