^C:\04-630\PROJECT\SRC\LINKEDLIST\LINKEDLISTAPPLICATION.C|C:\04-630\PROJECT\SRC\LINKEDLIST\LINKEDLISTIMPLEMENTATION.C
C:\04-630\PROJECT\BUILD\SRC\LINKEDLIST\LINKEDLIST.DIR\RELEASE\LINKEDLISTIMPLEMENTATION.OBJ
C:\04-630\PROJECT\BUILD\SRC\LINKEDLIST\LINKEDLIST.DIR\RELEASE\LINKEDLISTAPPLICATION.OBJ
