^C:\04-630\ASSIGNMENTS\ASSIGNMENT0\SRC\LCHACHA\EXAMPLEAPPLICATION.CPP
/c /nologo /W3 /WX- /O2 /Ob2 /Oy- /D WIN32 /D _WINDOWS /D NDEBUG /D _CRT_SECURE_NO_DEPRECATE /D "CMAKE_INTDIR=\"Release\"" /D _MBCS /Gm- /EHsc /MD /GS /fp:precise /Zc:wchar_t /Zc:forScope /GR /Fo"lchacha.dir\Release\\" /Fd"lchacha.dir\Release\vc100.pdb" /Gd /TP /analyze- /errorReport:prompt C:\04-630\ASSIGNMENTS\ASSIGNMENT0\SRC\LCHACHA\EXAMPLEAPPLICATION.CPP
^C:\04-630\ASSIGNMENTS\ASSIGNMENT0\SRC\LCHACHA\EXAMPLEIMPLEMENTATION.CPP
/c /nologo /W3 /WX- /O2 /Ob2 /Oy- /D WIN32 /D _WINDOWS /D NDEBUG /D _CRT_SECURE_NO_DEPRECATE /D "CMAKE_INTDIR=\"Release\"" /D _MBCS /Gm- /EHsc /MD /GS /fp:precise /Zc:wchar_t /Zc:forScope /GR /Fo"lchacha.dir\Release\\" /Fd"lchacha.dir\Release\vc100.pdb" /Gd /TP /analyze- /errorReport:prompt C:\04-630\ASSIGNMENTS\ASSIGNMENT0\SRC\LCHACHA\EXAMPLEIMPLEMENTATION.CPP
