^C:\04-630\PROJECT\BUILD\CMAKEFILES\3.8.2\COMPILERIDC\DEBUG\COMPILERIDC.EXE.INTERMEDIATE.MANIFEST
C:\WINDOWS\MICROSOFT.NET\FRAMEWORK\V2.0.50727\MSCORWKS.DLL
C:\WINDOWS\MICROSOFT.NET\FRAMEWORK\V4.0.30319\CLR.DLL
C:\PROGRAM FILES\MICROSOFT SDKS\WINDOWS\V7.0A\BIN\MT.EXE.CONFIG
C:\04-630\PROJECT\BUILD\CMAKEFILES\3.8.2\COMPILERIDC\COMPILERIDC.EXE
