^C:\04-630\ASSIGNMENTS\ASSIGNMENT0\BUILD\SRC\DVERNON\DVERNON.DIR\DEBUG\DVERNON.EXE.EMBED.MANIFEST.RES|C:\04-630\ASSIGNMENTS\ASSIGNMENT0\BUILD\SRC\DVERNON\DVERNON.DIR\DEBUG\EXAMPLEAPPLICATION.OBJ|C:\04-630\ASSIGNMENTS\ASSIGNMENT0\BUILD\SRC\DVERNON\DVERNON.DIR\DEBUG\EXAMPLEIMPLEMENTATION.OBJ
/ERRORREPORT:PROMPT /OUT:"C:\04-630\assignments\assignment0\build\Debug\dvernon.exe" /INCREMENTAL /NOLOGO kernel32.lib user32.lib gdi32.lib winspool.lib shell32.lib ole32.lib oleaut32.lib uuid.lib comdlg32.lib advapi32.lib /NODEFAULTLIB:"libc;libcmt.lib;libcmtd.lib" /MANIFEST /ManifestFile:"dvernon.dir\Debug\dvernon.exe.intermediate.manifest" /MANIFESTUAC:"level='asInvoker' uiAccess='false'" /DEBUG /PDB:"C:/04-630/assignments/assignment0/build/Debug/dvernon.pdb" /SUBSYSTEM:CONSOLE /TLBID:1 /DYNAMICBASE /NXCOMPAT /IMPLIB:"C:/04-630/assignments/assignment0/build/Debug/dvernon.lib" /MACHINE:X86 dvernon.dir\Debug\dvernon.exe.embed.manifest.res
dvernon.dir\Debug\exampleApplication.obj
dvernon.dir\Debug\exampleImplementation.obj   /machine:X86
