^C:\04-630\PROJECT\BUILD\CMAKEFILES\3.8.2\COMPILERIDCXX\DEBUG\CMAKECXXCOMPILERID.OBJ
C:\04-630\PROJECT\BUILD\CMAKEFILES\3.8.2\COMPILERIDCXX\COMPILERIDCXX.EXE
C:\04-630\PROJECT\BUILD\CMAKEFILES\3.8.2\COMPILERIDCXX\DEBUG\COMPILERIDCXX.EXE.INTERMEDIATE.MANIFEST
