^C:\04-630\ASSIGNMENTS\ASSIGNMENT2\CMAKELISTS.TXT
C:\04-630\ASSIGNMENTS\ASSIGNMENT2\BUILD\CMAKEFILES\GENERATE.STAMP
^C:\04-630\ASSIGNMENTS\ASSIGNMENT2\BUILD\CMAKEFILES\4F68D3EFF037A056028B5749293861C4\ALL_BUILD.RULE
C:\04-630\ASSIGNMENTS\ASSIGNMENT2\BUILD\CMAKEFILES\ALL_BUILD
