^C:\04-630\ASSIGNMENTS\ASSIGNMENT2\CMAKELISTS.TXT
C:\04-630\ASSIGNMENTS\ASSIGNMENT2\BUILD\CMAKEFILES\3.0.1\CMAKESYSTEM.CMAKE
C:\04-630\ASSIGNMENTS\ASSIGNMENT2\BUILD\CMAKEFILES\3.0.1\CMAKECCOMPILER.CMAKE
C:\04-630\ASSIGNMENTS\ASSIGNMENT2\BUILD\CMAKEFILES\3.0.1\CMAKECXXCOMPILER.CMAKE
C:\PROGRAM FILES (X86)\CMAKE\SHARE\CMAKE-3.0\MODULES\CMAKESYSTEMSPECIFICINFORMATION.CMAKE
C:\PROGRAM FILES (X86)\CMAKE\SHARE\CMAKE-3.0\MODULES\CMAKEGENERICSYSTEM.CMAKE
C:\PROGRAM FILES (X86)\CMAKE\SHARE\CMAKE-3.0\MODULES\PLATFORM\WINDOWS.CMAKE
C:\PROGRAM FILES (X86)\CMAKE\SHARE\CMAKE-3.0\MODULES\PLATFORM\WINDOWSPATHS.CMAKE
C:\PROGRAM FILES (X86)\CMAKE\SHARE\CMAKE-3.0\MODULES\CMAKECINFORMATION.CMAKE
C:\PROGRAM FILES (X86)\CMAKE\SHARE\CMAKE-3.0\MODULES\PLATFORM\WINDOWS-MSVC-C.CMAKE
C:\PROGRAM FILES (X86)\CMAKE\SHARE\CMAKE-3.0\MODULES\PLATFORM\WINDOWS-MSVC.CMAKE
C:\04-630\ASSIGNMENTS\ASSIGNMENT2\BUILD\CMAKEFILES\3.0.1\CMAKERCCOMPILER.CMAKE
C:\PROGRAM FILES (X86)\CMAKE\SHARE\CMAKE-3.0\MODULES\CMAKERCINFORMATION.CMAKE
C:\PROGRAM FILES (X86)\CMAKE\SHARE\CMAKE-3.0\MODULES\CMAKECOMMONLANGUAGEINCLUDE.CMAKE
C:\PROGRAM FILES (X86)\CMAKE\SHARE\CMAKE-3.0\MODULES\CMAKECXXINFORMATION.CMAKE
C:\PROGRAM FILES (X86)\CMAKE\SHARE\CMAKE-3.0\MODULES\PLATFORM\WINDOWS-MSVC-CXX.CMAKE
^C:\04-630\ASSIGNMENTS\ASSIGNMENT2\BUILD\CMAKEFILES\4F68D3EFF037A056028B5749293861C4\ALL_BUILD.RULE
