^C:\04-630\ASSIGNMENTS\ASSIGNMENT2\BUILD\CMAKEFILES\4F68D3EFF037A056028B5749293861C4\GENERATE.STAMP.RULE
C:\04-630\ASSIGNMENTS\ASSIGNMENT2\BUILD\CMAKEFILES\GENERATE.STAMP
C:\04-630\ASSIGNMENTS\ASSIGNMENT2\BUILD\SRC\CMAKEFILES\GENERATE.STAMP
C:\04-630\ASSIGNMENTS\ASSIGNMENT2\BUILD\SRC\DVERNON\CMAKEFILES\GENERATE.STAMP
^C:\04-630\ASSIGNMENTS\ASSIGNMENT2\BUILD\CMAKEFILES\4F68D3EFF037A056028B5749293861C4\ZERO_CHECK.RULE
C:\04-630\ASSIGNMENTS\ASSIGNMENT2\BUILD\CMAKEFILES\ZERO_CHECK
