^C:\04-630\ASSIGNMENTS\ASSIGNMENT2\BUILD\CMAKEFILES\4F68D3EFF037A056028B5749293861C4\GENERATE.STAMP.RULE
setlocal
"C:\Program Files (x86)\CMake\bin\cmake.exe" -HC:/04-630/assignments/assignment2 -BC:/04-630/assignments/assignment2/build --check-stamp-list CMakeFiles/generate.stamp.list --vs-solution-file "C:\04-630\assignments\assignment2\build\assignment2.sln"
if %errorlevel% neq 0 goto :cmEnd
:cmEnd
endlocal & call :cmErrorLevel %errorlevel% & goto :cmDone
:cmErrorLevel
exit /b %1
:cmDone
if %errorlevel% neq 0 goto :VCEnd
^C:\04-630\ASSIGNMENTS\ASSIGNMENT2\BUILD\CMAKEFILES\4F68D3EFF037A056028B5749293861C4\ZERO_CHECK.RULE
setlocal
:cmEnd
endlocal & call :cmErrorLevel %errorlevel% & goto :cmDone
:cmErrorLevel
exit /b %1
:cmDone
if %errorlevel% neq 0 goto :VCEnd
